<?xml version="1.0" encoding="UTF-8"?>
<svg xmlns="http://www.w3.org/2000/svg" width="480" height="288">
<rect fill="#d7b004" width="96" height="288"/>
<rect fill="#02659b" width="96" height="288" x="96"/>
<rect fill="#a2abd2" width="96" height="288" x="192"/>
<rect fill="#cb0db2" width="96" height="288" x="288"/>
<rect fill="#7fa2b6" width="96" height="288" x="384"/>
<text font-size="32" fill="white" font-family="Bitstream Vera Sans" x="388.1" y="269.3">+<tspan font-size="48">56</tspan></text>
</svg>
